/* XPM */
static char * height2_xpm[] = {
"44 20 87 1",
" 	c None",
".	c #A4A4A4",
"+	c #868686",
"@	c #808080",
"#	c #7F7F7F",
"$	c #7E7E7E",
"%	c #7D7D7D",
"&	c #7C7C7C",
"*	c #7B7B7B",
"=	c #7A7A7A",
"-	c #797979",
";	c #ACACAC",
">	c #CBCBCB",
",	c #6A6A6A",
"'	c #BCBCBC",
")	c #DADADA",
"!	c #DEDEDE",
"~	c #DDDDDD",
"{	c #DCDCDC",
"]	c #DBDBDB",
"^	c #D9D9D9",
"/	c #D8D8D8",
"(	c #D7D7D7",
"_	c #D6D6D6",
":	c #D5D5D5",
"<	c #D4D4D4",
"[	c #D3D3D3",
"}	c #D2D2D2",
"|	c #D1D1D1",
"1	c #FCFCFC",
"2	c #939393",
"3	c #C4C4C4",
"4	c #929292",
"5	c #A8A8A8",
"6	c #8D8D8D",
"7	c #FBFBFB",
"8	c #000000",
"9	c #484848",
"0	c #474747",
"a	c #A3A3A3",
"b	c #747474",
"c	c #A7A7A7",
"d	c #8C8C8C",
"e	c #454545",
"f	c #A9A9A9",
"g	c #777777",
"h	c #767676",
"i	c #A6A6A6",
"j	c #464646",
"k	c #757575",
"l	c #2E2E2E",
"m	c #171717",
"n	c #616161",
"o	c #181818",
"p	c #303030",
"q	c #C0C0C0",
"r	c #BEBEBE",
"s	c #2F2F2F",
"t	c #8E8E8E",
"u	c #D0D0D0",
"v	c #C2C2C2",
"w	c #787878",
"x	c #8B8B8B",
"y	c #626262",
"z	c #919191",
"A	c #909090",
"B	c #FAFAFA",
"C	c #606060",
"D	c #BDBDBD",
"E	c #5E5E5E",
"F	c #8F8F8F",
"G	c #5F5F5F",
"H	c #BBBBBB",
"I	c #BABABA",
"J	c #A2A2A2",
"K	c #8A8A8A",
"L	c #A5A5A5",
"M	c #CFCFCF",
"N	c #B5B5B5",
"O	c #C6C6C6",
"P	c #FFFFFF",
"Q	c #C7C7C7",
"R	c #555555",
"S	c #1D1D1D",
"T	c #FDFDFD",
"U	c #E6E6E6",
"V	c #F7F7F7",
".+@@@@@###$$$$$$$%%%%%%&&&&&&****======---;>",
"+,@@@@####$$$$$$%%%%%%%&&&&&&***=======---')",
"@@!~~~{{{]]]))))^^^///(((____:::<<<[[[}}}|11",
"@@~~~~{{{]]])))^^^////(((___:::<<<<[[[}}}|11",
"@@~~~{{{]]]])))^^^///(((____:::<<<[[[}}}||11",
"@@23~{{{]4])))^^^^/55(((___:::'6<<[[[}}}||17",
"@@82{{{]]8])))^^^//90(((___:::68<[[[}}ab||17",
"@@82{{{]]8)))^^^^//5c((___::::68<[[[}}de||77",
"@@84{{{]]8)))f9f///gg((_00:hi<68[jk[}alme|77",
"@@84{{]]]8))no9opq/00(rss0sst<68sjs8}almeu77",
"@@88888888)vof^/pw/00(gs_:io6<68.[[jd}xe|u77",
"@@8y4444z8)z9^^/A9(00_0t_::06<68[[}jd|xe|u77",
"@@84{]]])8)A888889(00_0t:::j6<68[[}jd|xeuu7B",
"@#84]]]])8)A9^///((00_0t:::j6<d8[}}jd|xeuu7B",
"@#84]]]))8^^8w//C0(00_t8D:E86<d8[}}jx|xeuuBB",
"##84]]]))8^^w9990F(00_rGs0Es6[d8}}}jx|aleuBB",
"##4v]])))A^^^qAA(((cc_::tt<j6[Hd}}}aI|uJKuBB",
"##{]]])))^^^///((((___0s:<LoH[[[}}}|||uuuMBB",
"NOPPPPPPPPPPPPPPPPPPPPQR88SRPPPTTT1111777BPP",
"_UPPPPPPPPPPPPPPPPPPPPPPPPPPPPPTTT111777BBPV"};
