/* XPM */
static char * hill1_xpm[] = {
"21 20 65 1",
" 	c None",
".	c #F7FFFF",
"+	c #FFFFFF",
"@	c #F9FFFF",
"#	c #F6FFFF",
"$	c #F5FFFF",
"%	c #F4FFFF",
"&	c #F3FFFF",
"*	c #F1FFFF",
"=	c #F0FFFF",
"-	c #D0E1E1",
";	c #C1D0D0",
">	c #B2C1C1",
",	c #A3B0B0",
"'	c #CDDDDD",
")	c #CCDCDC",
"!	c #CBDBDB",
"~	c #CADADA",
"{	c #C9D9D9",
"]	c #C8D8D8",
"^	c #C7D7D7",
"/	c #C6D6D6",
"(	c #727C7C",
"_	c #727B7B",
":	c #C5D5D5",
"<	c #717A7A",
"[	c #889898",
"}	c #B4C4C4",
"|	c #869696",
"1	c #849494",
"2	c #B1C1C1",
"3	c #9AAAAA",
"4	c #AFBFBF",
"5	c #4C5757",
"6	c #001010",
"7	c #879797",
"8	c #425252",
"9	c #415151",
"0	c #839393",
"a	c #B0C0C0",
"b	c #829292",
"c	c #C4D4D4",
"d	c #707979",
"e	c #C3D3D3",
"f	c #596969",
"g	c #859595",
"h	c #819191",
"i	c #6F7979",
"j	c #C2D2D2",
"k	c #405050",
"l	c #809090",
"m	c #6F7878",
"n	c #C1D1D1",
"o	c #ADBDBD",
"p	c #97A7A7",
"q	c #96A6A6",
"r	c #ABBBBB",
"s	c #4A5555",
"t	c #C0D0D0",
"u	c #6E7777",
"v	c #B3C2C2",
"w	c #5B6363",
"x	c #747D7D",
"y	c #C2D1D1",
"z	c #8C9898",
".+@..###$$%%&&&**==-;",
"++..###$$%%&&&**===>,",
"@.')))!!~~{{{]]^^^/(_",
"..)))!!~~~{{]]^^^//__",
".#))!!~~~{{]]^^^//:_<",
".#[}!~~~{|]]12^33:45<",
"##67~~~{{6]^61/89:06<",
"#$6|~~{{]6^^1a/99:b6<",
"$$6|~{{]]6^^83:99cb6<",
"$%6|{{]]]6^/60:99cb6d",
"$%66666666//60:99eb6d",
"%%6fggg116/:60c99eb6d",
"%&6g]]^^/6/:6bc99eh6i",
"&&6g]^^//6::6be99jh6i",
"&*6g^^///6:c6be9kjl6m",
"&*61^///:6cc6bekknl6m",
"**12///::bcebojpqnrsm",
"*=^///::ccceejjnnntmu",
"-v(((__<<<<<ddiiimmwx",
"y,((__<<<<<ddiiimmuxz"};
