/* XPM */
static char * steepness_xpm[] = {
"71 20 94 2",
"  	c None",
". 	c #FFFFFF",
"+ 	c #FDFDFD",
"@ 	c #FCFCFC",
"# 	c #FBFBFB",
"$ 	c #D9D9D9",
"% 	c #CACACA",
"& 	c #BBBBBB",
"* 	c #ABABAB",
"= 	c #DEDEDE",
"- 	c #DDDDDD",
"; 	c #DCDCDC",
"> 	c #DBDBDB",
", 	c #DADADA",
"' 	c #D8D8D8",
") 	c #D7D7D7",
"! 	c #D6D6D6",
"~ 	c #D5D5D5",
"{ 	c #D4D4D4",
"] 	c #D3D3D3",
"^ 	c #D2D2D2",
"/ 	c #D1D1D1",
"( 	c #D0D0D0",
"_ 	c #787878",
": 	c #777777",
"< 	c #ACACAC",
"[ 	c #939393",
"} 	c #C4C4C4",
"| 	c #C5C5C5",
"1 	c #626262",
"2 	c #494949",
"3 	c #7A7A7A",
"4 	c #797979",
"5 	c #313131",
"6 	c #000000",
"7 	c #929292",
"8 	c #C3C3C3",
"9 	c #303030",
"0 	c #181818",
"a 	c #484848",
"b 	c #474747",
"c 	c #A7A7A7",
"d 	c #767676",
"e 	c #A5A5A5",
"f 	c #464646",
"g 	c #A4A4A4",
"h 	c #747474",
"i 	c #A3A3A3",
"j 	c #454545",
"k 	c #A2A2A2",
"l 	c #AAAAAA",
"m 	c #C1C1C1",
"n 	c #606060",
"o 	c #2F2F2F",
"p 	c #8E8E8E",
"q 	c #5E5E5E",
"r 	c #171717",
"s 	c #2E2E2E",
"t 	c #BABABA",
"u 	c #B9B9B9",
"v 	c #191919",
"w 	c #A8A8A8",
"x 	c #C0C0C0",
"y 	c #BEBEBE",
"z 	c #5F5F5F",
"A 	c #BCBCBC",
"B 	c #757575",
"C 	c #8B8B8B",
"D 	c #CFCFCF",
"E 	c #909090",
"F 	c #8F8F8F",
"G 	c #8D8D8D",
"H 	c #8C8C8C",
"I 	c #5D5D5D",
"J 	c #737373",
"K 	c #8A8A8A",
"L 	c #A9A9A9",
"M 	c #BFBFBF",
"N 	c #7B7B7B",
"O 	c #616161",
"P 	c #5C5C5C",
"Q 	c #919191",
"R 	c #BDBDBD",
"S 	c #E7E7E7",
"T 	c #C7C7C7",
"U 	c #808080",
"V 	c #7F7F7F",
"W 	c #7E7E7E",
"X 	c #7D7D7D",
"Y 	c #7C7C7C",
"Z 	c #525252",
"` 	c #636363",
" .	c #B6B6B6",
"..	c #989898",
". . . . . . . . . . . . . . . . . . . . . . . . . . . . . . . . . . . . . . . . . . . . . . . . . . . . . . . . . + + + + + @ @ @ @ # # # $ % ",
". . . . . . . . . . . . . . . . . . . . . . . . . . . . . . . . . . . . . . . . . . . . . . . . . . . . . . . . . + + + + @ @ @ @ @ # # # & * ",
". . = = = - - - - ; ; ; ; ; > > > > > , , , , $ $ $ $ $ ' ' ' ' ' ) ) ) ) ) ! ! ! ! ~ ~ ~ ~ ~ { { { { { ] ] ] ] ^ ^ ^ ^ ^ / / / / / ( ( ( _ : ",
". . = = - - - - - ; ; ; ; ; > > > > , , , , , $ $ $ $ $ ' ' ' ' ' ) ) ) ) ! ! ! ! ! ~ ~ ~ ~ ~ { { { { ] ] ] ] ] ^ ^ ^ ^ ^ / / / / ( ( ( ( _ : ",
". . = = - - - - - ; ; ; ; ; > > > > , , , , , $ $ $ $ $ ' ' ' ' ) ) ) ) ) ! ! ! ! ! ~ ~ ~ ~ { { { { { ] ] ] ] ] ^ ^ ^ ^ / / / / / ( ( ( ( _ : ",
". . = = - < [ [ } ; ; ; ; > > > > > , , , , , $ $ $ $ ' ' ' ' ' ) ) ) ) ) ! ! ! ! ~ ~ ~ ~ ~ { { { { { ] ] ] ] ] ^ ^ ^ ^ / / / / / ( ( ( ( _ : ",
". . = | 1 2 2 2 2 3 ; ; * 4 > > > > , , , , $ $ $ $ $ ' ' ' ' ' ) ) ) ) ! ! ! ! ! ~ ~ ~ ~ ~ { { { { { ] ] ] ] ^ ^ ^ ^ ^ / / / / / ( ( ( ( : : ",
". . = 5 5 } - - 3 6 ; ; 7 2 > > > , , , , , $ $ $ $ $ ' ' ' ' ) ) ) ) ) ! ! ! ! ! ~ ~ ~ ~ ~ { { { { ] ] ] ] ] ^ ^ ^ ^ ^ / / / / ( ( ( ( ( : : ",
". . = 6 [ - - - 8 7 ; * 9 0 2 > > , a 4 , , $ $ $ _ a ' ' ' ' b c : b : ! ! ! b c d b ~ ~ { { { e f g ] ] ] ] f f h ^ / / i j j k ( ( ( ( : : ",
". . = 5 5 [ } ; ; ; ; * 9 0 2 > l 6 a 9 6 l $ m 9 9 a 6 n ' ' 6 9 9 b 6 : ! ! 6 o o b 6 p { { q 0 f r o & ] s r f s 6 i t 6 s j r s u ( ( : : ",
". . - - < 2 v 6 1 8 ; ; 7 2 > > 9 4 , , 4 9 $ _ 9 $ ' w 0 x ' 6 n ) ) c b y ! 6 z ~ ~ p b { A 0 e ] ] o B ] 6 ^ ^ ^ h h C j / / ( j k ( D : : ",
". . - - - - < 1 6 5 ; ; 7 2 > > 6 , , , , 6 $ a E $ ' ' a E ) 6 F ) ) ! b p ! 6 p ~ ~ p f { G f { ] ] H f ] 6 f h ^ ^ / C r j k ( ( ( ( D : : ",
". . - - - - - ; 8 5 7 > 7 2 > > 6 6 6 6 6 6 $ a 6 6 6 6 6 E ) 6 F ) ) ! b p ! 6 p ~ ~ p f { G 6 6 6 6 6 f ] i H 6 6 s / / C I 6 6 J ( ( D : : ",
". . [ 2 - - ; ; ; 2 7 > 7 2 > > 6 , , , $ $ $ a E ' ' ' ' ' ) 6 F ) ) ! b p ! 6 p ~ ~ p f { G f { ] ] ] ] ^ ^ ^ ^ i r j / / / ( J 6 K D D : : ",
". . < 6 1 } ; ; 3 6 * > 7 2 > , a 9 , , L 6 $ E 6 x ' x 9 E ) 6 9 M ! z b ! ! 6 p ~ ~ p f { { 6 B ] ] q f ^ 6 ^ ^ t s j C j ( ( k 6 K D D : : ",
". . - N 5 5 2 2 2 3 ; > l 9 2 , l a a a a O $ m O a a a a M ) 6 b b b 0 p ! ! 6 p ~ ~ G f { { d f f f f H ^ f f f s s i i j j j r P u D D : : ",
". . - - } [ 7 7 8 ; > > > l 7 , , , Q Q m $ $ $ ' w E w ' ) ) 6 F c p c ! ! ~ p R ~ ~ A e { { { & H H ] ] ^ ^ H H C t / / t K K K ( ( D D : : ",
". . - - - ; ; ; ; ; > > > > > , , , , $ $ $ $ $ ' ' ' ' ' ) ) 6 F ! ! ! ! ! ~ ~ ~ ~ ~ { { { { { ] ] ] ] ^ ^ ^ ^ ^ / / / / / ( ( ( ( D D D : : ",
"S T U U U V V V V V W W W W W W W W W X X X X X X X X X Y Y Y 6 Z Y Y Y Y Y N N N N N 3 3 3 3 3 3 3 3 3 4 4 4 4 4 4 4 4 4 _ _ _ _ _ : : : ` X ",
")  .U U U V V V V W W W W W W W W W W X X X X X X X X X Y Y Y Y Y Y Y Y Y Y N N N N 3 3 3 3 3 3 3 3 3 3 4 4 4 4 4 4 4 4 4 _ _ _ _ _ : : : X .."};
